{
    "KPlugin": {
        "Authors": [
            {
                "Name": "Aleix Pol",
                "Name[ar]": "Aleix Pol",
                "Name[az]": "Aleix Pol",
                "Name[ca@valencia]": "Aleix Pol",
                "Name[ca]": "Aleix Pol",
                "Name[cs]": "Aleix Pol",
                "Name[da]": "Aleix Pol",
                "Name[de]": "Aleix Pol",
                "Name[el]": "Aleix Pol",
                "Name[en_GB]": "Aleix Pol",
                "Name[es]": "Aleix Pol",
                "Name[et]": "Aleix Pol",
                "Name[eu]": "Aleix Pol",
                "Name[fi]": "Aleix Pol",
                "Name[fr]": "Aleix Pol",
                "Name[gl]": "Aleix Pol",
                "Name[hu]": "Aleix Pol",
                "Name[ia]": "Aleix Pol",
                "Name[id]": "Aleix Pol",
                "Name[it]": "Aleix Pol",
                "Name[ko]": "Aleix Pol",
                "Name[lt]": "Aleix Pol",
                "Name[nl]": "Aleix Pol",
                "Name[nn]": "Aleix Pol",
                "Name[pl]": "Aleix Pol",
                "Name[pt]": "Aleix Pol",
                "Name[pt_BR]": "Aleix Pol",
                "Name[ru]": "Aleix Pol",
                "Name[sk]": "Aleix Pol",
                "Name[sl]": "Aleix Pol",
                "Name[sv]": "Aleix Pol",
                "Name[tg]": "Алекс Пол (Aleix Pol)",
                "Name[tr]": "Aleix Pol",
                "Name[uk]": "Aleix Pol",
                "Name[x-test]": "xxAleix Polxx",
                "Name[zh_CN]": "Aleix Pol",
                "Name[zh_TW]": "Aleix Pol"
            }
        ],
        "Category": "Utilities",
        "Description": "Upload videos to YouTube",
        "Description[ar]": "ارفع الفديوهات على «يوتيوب»",
        "Description[az]": "Videonu YouTube göndərmək",
        "Description[ca@valencia]": "Puja vídeos a YouTube",
        "Description[ca]": "Puja vídeos a YouTube",
        "Description[cs]": "Odeslat videa na YouTube",
        "Description[da]": "Upload videoer til YouTube",
        "Description[de]": "Videos auf YouTube hochladen",
        "Description[el]": "Αποστολή βίντεο στο YouTube",
        "Description[en_GB]": "Upload videos to YouTube",
        "Description[es]": "Enviar vídeos a YouTube",
        "Description[et]": "Videode laadimine YouTube'i",
        "Description[eu]": "Igo bideoak YouTubera",
        "Description[fi]": "Lähetä YouTubeen videoita",
        "Description[fr]": "Envoyer des vidéos vers YouTube",
        "Description[gl]": "Enviar vídeos a YouTube.",
        "Description[hu]": "Videók feltöltése YouTube-ra",
        "Description[ia]": "Incarga videos in YouTube",
        "Description[id]": "Unggahkan video ke YouTube",
        "Description[it]": "Carica video su YouTube",
        "Description[ko]": "YouTube에 동영상 업로드",
        "Description[lt]": "Įkelti vaizdo įrašus į YouTube",
        "Description[ml]": "യൂട്യൂബിലേക്ക് വീഡിയോകള്‍ കയറ്റുമതിചെയ്യുക",
        "Description[nl]": "Video's naar YouTube uploaden",
        "Description[nn]": "Last opp videoar til YouTube",
        "Description[pl]": "Prześlij film na YouTube",
        "Description[pt]": "Enviar os vídeos para o YouTube",
        "Description[pt_BR]": "Envia vídeos para o YouTube",
        "Description[ru]": "Загрузка видео на YouTube",
        "Description[sk]": "Nahrať videá na YouTube",
        "Description[sl]": "Preneli vedee na Youtube",
        "Description[sv]": "Ladda upp videor till YouTube",
        "Description[tg]": "Бор кардани видеоҳо ба YouTube",
        "Description[tr]": "Videoları YouTube'a yükle",
        "Description[uk]": "Вивантаження відео на YouTube",
        "Description[x-test]": "xxUpload videos to YouTubexx",
        "Description[zh_CN]": "上传视频到 YouTube",
        "Description[zh_TW]": "上傳影片到 YouTube",
        "Icon": "edit-paste",
        "License": "GPL",
        "Name": "YouTube",
        "Name[ar]": "يوتيوب",
        "Name[az]": "YouTube",
        "Name[ca@valencia]": "YouTube",
        "Name[ca]": "YouTube",
        "Name[cs]": "YouTube",
        "Name[da]": "YouTube",
        "Name[de]": "YouTube",
        "Name[el]": "YouTube",
        "Name[en_GB]": "YouTube",
        "Name[es]": "YouTube",
        "Name[et]": "YouTube",
        "Name[eu]": "YouTube",
        "Name[fi]": "YouTube",
        "Name[fr]": "YouTube",
        "Name[gl]": "YouTube",
        "Name[hu]": "YouTube",
        "Name[ia]": "YouTube",
        "Name[id]": "YouTube",
        "Name[it]": "YouTube",
        "Name[ko]": "YouTube",
        "Name[lt]": "YouTube",
        "Name[ml]": "യൂട്യൂബ്",
        "Name[nl]": "YouTube",
        "Name[nn]": "YouTube",
        "Name[pl]": "YouTube",
        "Name[pt]": "YouTube",
        "Name[pt_BR]": "YouTube",
        "Name[ru]": "YouTube",
        "Name[sk]": "YouTube",
        "Name[sl]": "YouTube",
        "Name[sv]": "YouTube",
        "Name[tg]": "YouTube",
        "Name[tr]": "YouTube",
        "Name[uk]": "YouTube",
        "Name[x-test]": "xxYouTubexx",
        "Name[zh_CN]": "YouTube",
        "Name[zh_TW]": "YouTube",
        "X-Purpose-ActionDisplay": "Youtube...",
        "X-Purpose-ActionDisplay[az]": "Youtube...",
        "X-Purpose-ActionDisplay[ca]": "YouTube...",
        "X-Purpose-ActionDisplay[cs]": "YouTube...",
        "X-Purpose-ActionDisplay[da]": "YouTube...",
        "X-Purpose-ActionDisplay[de]": "YouTube ...",
        "X-Purpose-ActionDisplay[en_GB]": "Youtube...",
        "X-Purpose-ActionDisplay[es]": "Youtube...",
        "X-Purpose-ActionDisplay[et]": "Youtube ...",
        "X-Purpose-ActionDisplay[eu]": "Youtube...",
        "X-Purpose-ActionDisplay[fi]": "YouTube…",
        "X-Purpose-ActionDisplay[fr]": "Youtube...",
        "X-Purpose-ActionDisplay[gl]": "YouTube…",
        "X-Purpose-ActionDisplay[ia]": "YouTube...",
        "X-Purpose-ActionDisplay[id]": "Youtube...",
        "X-Purpose-ActionDisplay[it]": "Youtube...",
        "X-Purpose-ActionDisplay[ko]": "Youtube...",
        "X-Purpose-ActionDisplay[lt]": "Youtube...",
        "X-Purpose-ActionDisplay[ml]": "യൂട്യൂബ്...",
        "X-Purpose-ActionDisplay[nl]": "YouTube...",
        "X-Purpose-ActionDisplay[nn]": "YouTube …",
        "X-Purpose-ActionDisplay[pl]": "YouTube...",
        "X-Purpose-ActionDisplay[pt]": "Youtube...",
        "X-Purpose-ActionDisplay[pt_BR]": "Youtube...",
        "X-Purpose-ActionDisplay[ru]": "YouTube...",
        "X-Purpose-ActionDisplay[sk]": "YouTube...",
        "X-Purpose-ActionDisplay[sl]": "Youtube...",
        "X-Purpose-ActionDisplay[sv]": "YouTube...",
        "X-Purpose-ActionDisplay[tg]": "Youtube...",
        "X-Purpose-ActionDisplay[uk]": "YouTube…",
        "X-Purpose-ActionDisplay[x-test]": "xxYoutube...xx",
        "X-Purpose-ActionDisplay[zh_CN]": "Youtube...",
        "X-Purpose-ActionDisplay[zh_TW]": "YouTube…"
    },
    "X-Purpose-Configuration": [
        "videoDesc",
        "videoTitle",
        "videoTags",
        "accountId"
    ],
    "X-Purpose-Constraints": [
        "mimeType:video/*"
    ],
    "X-Purpose-PluginTypes": [
        "Export"
    ]
}
