{
    "KPlugin": {
        "Authors": [
            {
                "Name": "Lim Yuen Hoe",
                "Name[ar]": "Lim Yuen Hoe",
                "Name[az]": "Lim Yuen Hoe",
                "Name[ca@valencia]": "Lim Yuen Hoe",
                "Name[ca]": "Lim Yuen Hoe",
                "Name[cs]": "Lim Yuen Hoe",
                "Name[da]": "Lim Yuen Hoe",
                "Name[de]": "Lim Yuen Hoe",
                "Name[en_GB]": "Lim Yuen Hoe",
                "Name[es]": "Lim Yuen Hoe",
                "Name[et]": "Lim Yuen Hoe",
                "Name[eu]": "Lim Yuen Hoe",
                "Name[fi]": "Lim Yuen Hoe",
                "Name[fr]": "Lim Yuen Hoe",
                "Name[gl]": "Lim Yuen Hoe",
                "Name[hu]": "Lim Yuen Hoe",
                "Name[ia]": "Lim Yuen Hoe",
                "Name[id]": "Lim Yuen Hoe",
                "Name[it]": "Lim Yuen Hoe",
                "Name[ko]": "Lim Yuen Hoe",
                "Name[lt]": "Lim Yuen Hoe",
                "Name[nl]": "Lim Yuen Hoe",
                "Name[nn]": "Lim Yuen Hoe",
                "Name[pl]": "Lim Yuen Hoe",
                "Name[pt]": "Lim Yuen Hoe",
                "Name[pt_BR]": "Lim Yuen Hoe",
                "Name[ru]": "Lim Yuen Hoe",
                "Name[sk]": "Lim Yuen Hoe",
                "Name[sl]": "Lim Yuen Hoe",
                "Name[sv]": "Lim Yuen Hoe",
                "Name[tg]": "Лим Ён Хое (Lim Yuen Hoe)",
                "Name[tr]": "Lim Yuen Hoe",
                "Name[uk]": "Lim Yuen Hoe",
                "Name[x-test]": "xxLim Yuen Hoexx",
                "Name[zh_CN]": "Lim Yuen Hoe",
                "Name[zh_TW]": "Lim Yuen Hoe"
            }
        ],
        "Category": "Utilities",
        "Description": "Upload files to Nextcloud",
        "Description[ar]": "ارفع الملفات على «نِكست‌كلاود»",
        "Description[az]": "Faylı Nextcloud-a yükləmək",
        "Description[ca@valencia]": "Puja els fitxers al Nextcloud",
        "Description[ca]": "Puja els fitxers al Nextcloud",
        "Description[cs]": "Odeslat soubory do Nextcloudu",
        "Description[da]": "Upload filer til Nextcloud",
        "Description[de]": "Dateien auf Nextcloud hochladen",
        "Description[en_GB]": "Upload files to Nextcloud",
        "Description[es]": "Enviar archivos a Nextcloud",
        "Description[et]": "Failide laadimine Nextcloudi",
        "Description[eu]": "Igo fitxategiak NextCloud-era",
        "Description[fi]": "Lähetä Nextcloudiin tiedostoja",
        "Description[fr]": "Envoyer des fichiers vers Nextcloud",
        "Description[gl]": "Enviar ficheiros a NextCloud.",
        "Description[hu]": "Fájlok feltöltése Nextcloudba",
        "Description[ia]": "Incarga files a Nextcloud",
        "Description[id]": "Unggahkan file ke Nextcloud",
        "Description[it]": "Carica file su Nextcloud",
        "Description[ko]": "Nextcloud에 파일 업로드",
        "Description[lt]": "Įkelti failus į Nextcloud",
        "Description[ml]": "നെക്സ്റ്റ് ക്ലൌഡിലേക്ക് ഫയലുകള്‍ കയറ്റുമതിചെയ്യുക",
        "Description[nl]": "Bestanden naar Nextcloud uploaden",
        "Description[nn]": "Last opp filer til Nextcloud",
        "Description[pl]": "Prześlij pliki na Nextcloud",
        "Description[pt]": "Enviar os vídeos para o NextCloud",
        "Description[pt_BR]": "Envia arquivos para o Nextcloud",
        "Description[ru]": "Загрузка файлов в Nextcloud",
        "Description[sk]": "Nahrať súbory na Nextcloud",
        "Description[sl]": "Prenesi datoteke na Nextcloud",
        "Description[sv]": "Ladda upp filer till Nextcloud",
        "Description[tg]": "Бор кардани файлҳо ба Nextcloud",
        "Description[tr]": "Dosyaları Nextcloud'a yükle",
        "Description[uk]": "Вивантаження відео на Nextcloud",
        "Description[x-test]": "xxUpload files to Nextcloudxx",
        "Description[zh_CN]": "将文件上传到 Nextcloud",
        "Description[zh_TW]": "上傳檔案到 Nextcloud",
        "Icon": "edit-paste",
        "License": "GPL",
        "Name": "Nextcloud",
        "Name[az]": "Nextcloud",
        "Name[ca]": "Nextcloud",
        "Name[cs]": "NextCloud",
        "Name[da]": "Nextcloud",
        "Name[de]": "NextCloud",
        "Name[en_GB]": "Nextcloud",
        "Name[es]": "Nextcloud",
        "Name[et]": "Nextcloud",
        "Name[eu]": "NextCloud",
        "Name[fi]": "NextCloud",
        "Name[fr]": "Nextcloud",
        "Name[gl]": "Nextcloud",
        "Name[ia]": "Nextcloud",
        "Name[id]": "Nextcloud",
        "Name[it]": "Nextcloud",
        "Name[ko]": "Nextcloud",
        "Name[lt]": "Nextcloud",
        "Name[nl]": "Nextcloud",
        "Name[nn]": "Nextcloud",
        "Name[pl]": "Nextcloud",
        "Name[pt]": "Nextcloud",
        "Name[pt_BR]": "Nextcloud",
        "Name[ru]": "Nextcloud",
        "Name[sk]": "Nextcloud",
        "Name[sl]": "Nextcloud",
        "Name[sv]": "Nextcloud",
        "Name[tg]": "Nextcloud",
        "Name[uk]": "Nextcloud",
        "Name[x-test]": "xxNextcloudxx",
        "Name[zh_CN]": "Nextcloud",
        "Name[zh_TW]": "Nextcloud",
        "X-Purpose-ActionDisplay": "Nextcloud...",
        "X-Purpose-ActionDisplay[az]": "Nextcloud...",
        "X-Purpose-ActionDisplay[ca]": "Nextcloud...",
        "X-Purpose-ActionDisplay[cs]": "NextCloud...",
        "X-Purpose-ActionDisplay[da]": "Nextcloud...",
        "X-Purpose-ActionDisplay[de]": "NextCloud ...",
        "X-Purpose-ActionDisplay[en_GB]": "Nextcloud...",
        "X-Purpose-ActionDisplay[es]": "Nextcloud...",
        "X-Purpose-ActionDisplay[et]": "Nextcloud ...",
        "X-Purpose-ActionDisplay[eu]": "NextCloud...",
        "X-Purpose-ActionDisplay[fi]": "NextCloud…",
        "X-Purpose-ActionDisplay[fr]": "Nextcloud...",
        "X-Purpose-ActionDisplay[gl]": "Nextcloud…",
        "X-Purpose-ActionDisplay[ia]": "Nextcloud...",
        "X-Purpose-ActionDisplay[id]": "Nextcloud...",
        "X-Purpose-ActionDisplay[it]": "Nextcloud...",
        "X-Purpose-ActionDisplay[ko]": "Nextcloud...",
        "X-Purpose-ActionDisplay[lt]": "Nextcloud...",
        "X-Purpose-ActionDisplay[nl]": "Nextcloud...",
        "X-Purpose-ActionDisplay[nn]": "Nextcloud …",
        "X-Purpose-ActionDisplay[pl]": "Nextcloud...",
        "X-Purpose-ActionDisplay[pt]": "Nextcloud...",
        "X-Purpose-ActionDisplay[pt_BR]": "Nextcloud...",
        "X-Purpose-ActionDisplay[ru]": "Nextcloud...",
        "X-Purpose-ActionDisplay[sk]": "Nextcloud...",
        "X-Purpose-ActionDisplay[sl]": "Nextcloud...",
        "X-Purpose-ActionDisplay[sv]": "Nextcloud...",
        "X-Purpose-ActionDisplay[tg]": "Nextcloud...",
        "X-Purpose-ActionDisplay[uk]": "Nextcloud…",
        "X-Purpose-ActionDisplay[x-test]": "xxNextcloud...xx",
        "X-Purpose-ActionDisplay[zh_CN]": "Nextcloud...",
        "X-Purpose-ActionDisplay[zh_TW]": "Nextcloud..."
    },
    "X-Purpose-Configuration": [
        "folder",
        "accountId"
    ],
    "X-Purpose-PluginTypes": [
        "Export"
    ]
}
